<?xml version="1.0" encoding="UTF-8"?>
<kml xmlns="http://www.opengis.net/kml/2.2" xmlns:gx="http://www.google.com/kml/ext/2.2" xmlns:kml="http://www.opengis.net/kml/2.2" xmlns:atom="http://www.w3.org/2005/Atom">
<Document>
	<name>morskoy.kml</name>
	<Style id="s_ylw-pushpin_hl0">
		<IconStyle>
			<scale>1.3</scale>
			<Icon>
				<href>http://maps.google.com/mapfiles/kml/pushpin/ylw-pushpin.png</href>
			</Icon>
			<hotSpot x="20" y="2" xunits="pixels" yunits="pixels"/>
		</IconStyle>
	</Style>
	<Style id="s_ylw-pushpin">
		<IconStyle>
			<scale>1.1</scale>
			<Icon>
				<href>http://maps.google.com/mapfiles/kml/pushpin/ylw-pushpin.png</href>
			</Icon>
			<hotSpot x="20" y="2" xunits="pixels" yunits="pixels"/>
		</IconStyle>
	</Style>
	<StyleMap id="m_ylw-pushpin2">
		<Pair>
			<key>normal</key>
			<styleUrl>#s_ylw-pushpin</styleUrl>
		</Pair>
		<Pair>
			<key>highlight</key>
			<styleUrl>#s_ylw-pushpin_hl0</styleUrl>
		</Pair>
	</StyleMap>
	<Folder>
		<name>Поля морского</name>
		<open>1</open>
		<Placemark>
			<name>Морской 1</name>
			<styleUrl>#m_ylw-pushpin2</styleUrl>
			<Polygon>
				<tessellate>1</tessellate>
				<outerBoundaryIs>
					<LinearRing>
						<coordinates>
							38.17387155260882,46.69616347391115,0 38.17434810436468,46.68884629589922,0 38.18323497042093,46.68891593796707,0 38.18287298097013,46.69650239107578,0 38.17387155260882,46.69616347391115,0 
						</coordinates>
					</LinearRing>
				</outerBoundaryIs>
			</Polygon>
		</Placemark>
		<Placemark>
			<name>Морской 2</name>
			<styleUrl>#m_ylw-pushpin2</styleUrl>
			<Polygon>
				<tessellate>1</tessellate>
				<outerBoundaryIs>
					<LinearRing>
						<coordinates>
							38.18319002031868,46.6964536566202,0 38.18371685273831,46.68893573228783,0 38.19292625576473,46.68904630332143,0 38.19268055560386,46.69673082314864,0 38.18319002031868,46.6964536566202,0 
						</coordinates>
					</LinearRing>
				</outerBoundaryIs>
			</Polygon>
		</Placemark>
		<Placemark>
			<name>Морской 3</name>
			<styleUrl>#m_ylw-pushpin2</styleUrl>
			<Polygon>
				<tessellate>1</tessellate>
				<outerBoundaryIs>
					<LinearRing>
						<coordinates>
							38.19331276639639,46.69667374780128,0 38.19365149743609,46.69355364546364,0 38.19956169259946,46.69369979725095,0 38.19753389367565,46.69677005379355,0 38.19331276639639,46.69667374780128,0 
						</coordinates>
					</LinearRing>
				</outerBoundaryIs>
			</Polygon>
		</Placemark>
		<Placemark>
			<name>Морской 4</name>
			<styleUrl>#m_ylw-pushpin2</styleUrl>
			<Polygon>
				<tessellate>1</tessellate>
				<outerBoundaryIs>
					<LinearRing>
						<coordinates>
							38.16462257376138,46.6949648974676,0 38.16496911714617,46.68759687583422,0 38.17410703320279,46.68797022313311,0 38.17333600193857,46.69580999293203,0 38.16462257376138,46.6949648974676,0 
						</coordinates>
					</LinearRing>
				</outerBoundaryIs>
			</Polygon>
		</Placemark>
		<Placemark>
			<name>Морской 5</name>
			<styleUrl>#m_ylw-pushpin2</styleUrl>
			<Polygon>
				<tessellate>1</tessellate>
				<outerBoundaryIs>
					<LinearRing>
						<coordinates>
							38.16503987144501,46.6871839389769,0 38.16513695897293,46.68127372609521,0 38.17385569113785,46.6813823608394,0 38.17383374552746,46.68772517622385,0 38.16503987144501,46.6871839389769,0 
						</coordinates>
					</LinearRing>
				</outerBoundaryIs>
			</Polygon>
		</Placemark>
		<Placemark>
			<name>Морской 6</name>
			<styleUrl>#m_ylw-pushpin2</styleUrl>
			<Polygon>
				<tessellate>1</tessellate>
				<outerBoundaryIs>
					<LinearRing>
						<coordinates>
							38.17478686793334,46.6811168435047,0 38.18149768883433,46.68124226265421,0 38.1811597536913,46.68863024404388,0 38.17492613494482,46.68821937511752,0 38.17480800182294,46.68837606613373,0 38.17474888088321,46.68845447638066,0 38.17478686793334,46.6811168435047,0 
						</coordinates>
					</LinearRing>
				</outerBoundaryIs>
			</Polygon>
		</Placemark>
		<Placemark>
			<name>Морской7</name>
			<styleUrl>#m_ylw-pushpin2</styleUrl>
			<Polygon>
				<tessellate>1</tessellate>
				<outerBoundaryIs>
					<LinearRing>
						<coordinates>
							38.18157635217316,46.68840891558766,0 38.18192899191233,46.6812597889901,0 38.19354848346691,46.68137528884904,0 38.1929781107485,46.68854065630597,0 38.19314416418582,46.68853918845742,0 38.18157635217316,46.68840891558766,0 
						</coordinates>
					</LinearRing>
				</outerBoundaryIs>
			</Polygon>
		</Placemark>
	</Folder>
</Document>
</kml>
