<?xml version="1.0" encoding="UTF-8"?>
<kml xmlns="http://www.opengis.net/kml/2.2" xmlns:gx="http://www.google.com/kml/ext/2.2" xmlns:kml="http://www.opengis.net/kml/2.2" xmlns:atom="http://www.w3.org/2005/Atom">
<Document>
	<name>Ферма 2.kml</name>
	<Style id="sh_ylw-pushpin">
		<IconStyle>
			<scale>1.3</scale>
			<Icon>
				<href>http://maps.google.com/mapfiles/kml/pushpin/ylw-pushpin.png</href>
			</Icon>
			<hotSpot x="20" y="2" xunits="pixels" yunits="pixels"/>
		</IconStyle>
		<PolyStyle>
			<color>ffff00ff</color>
		</PolyStyle>
	</Style>
	<StyleMap id="msn_ylw-pushpin">
		<Pair>
			<key>normal</key>
			<styleUrl>#sn_ylw-pushpin</styleUrl>
		</Pair>
		<Pair>
			<key>highlight</key>
			<styleUrl>#sh_ylw-pushpin</styleUrl>
		</Pair>
	</StyleMap>
	<Style id="sn_ylw-pushpin">
		<IconStyle>
			<scale>1.1</scale>
			<Icon>
				<href>http://maps.google.com/mapfiles/kml/pushpin/ylw-pushpin.png</href>
			</Icon>
			<hotSpot x="20" y="2" xunits="pixels" yunits="pixels"/>
		</IconStyle>
		<PolyStyle>
			<color>ffff00ff</color>
		</PolyStyle>
	</Style>
	<Style id="sn_ylw-pushpin0">
		<IconStyle>
			<scale>1.1</scale>
			<Icon>
				<href>http://maps.google.com/mapfiles/kml/pushpin/ylw-pushpin.png</href>
			</Icon>
			<hotSpot x="20" y="2" xunits="pixels" yunits="pixels"/>
		</IconStyle>
		<PolyStyle>
			<color>ffffff55</color>
		</PolyStyle>
	</Style>
	<StyleMap id="msn_ylw-pushpin0">
		<Pair>
			<key>normal</key>
			<styleUrl>#sn_ylw-pushpin2</styleUrl>
		</Pair>
		<Pair>
			<key>highlight</key>
			<styleUrl>#sh_ylw-pushpin0</styleUrl>
		</Pair>
	</StyleMap>
	<Style id="sh_ylw-pushpin0">
		<IconStyle>
			<scale>1.3</scale>
			<Icon>
				<href>http://maps.google.com/mapfiles/kml/pushpin/ylw-pushpin.png</href>
			</Icon>
			<hotSpot x="20" y="2" xunits="pixels" yunits="pixels"/>
		</IconStyle>
		<PolyStyle>
			<color>ffffaa55</color>
		</PolyStyle>
	</Style>
	<Style id="sh_ylw-pushpin1">
		<IconStyle>
			<scale>1.3</scale>
			<Icon>
				<href>http://maps.google.com/mapfiles/kml/pushpin/ylw-pushpin.png</href>
			</Icon>
			<hotSpot x="20" y="2" xunits="pixels" yunits="pixels"/>
		</IconStyle>
	</Style>
	<StyleMap id="msn_ylw-pushpin1">
		<Pair>
			<key>normal</key>
			<styleUrl>#sn_ylw-pushpin0</styleUrl>
		</Pair>
		<Pair>
			<key>highlight</key>
			<styleUrl>#sh_ylw-pushpin2</styleUrl>
		</Pair>
	</StyleMap>
	<Style id="sn_ylw-pushpin1">
		<IconStyle>
			<scale>1.1</scale>
			<Icon>
				<href>http://maps.google.com/mapfiles/kml/pushpin/ylw-pushpin.png</href>
			</Icon>
			<hotSpot x="20" y="2" xunits="pixels" yunits="pixels"/>
		</IconStyle>
	</Style>
	<Style id="sn_ylw-pushpin2">
		<IconStyle>
			<scale>1.1</scale>
			<Icon>
				<href>http://maps.google.com/mapfiles/kml/pushpin/ylw-pushpin.png</href>
			</Icon>
			<hotSpot x="20" y="2" xunits="pixels" yunits="pixels"/>
		</IconStyle>
		<PolyStyle>
			<color>ffffaa55</color>
		</PolyStyle>
	</Style>
	<StyleMap id="msn_ylw-pushpin2">
		<Pair>
			<key>normal</key>
			<styleUrl>#sn_ylw-pushpin1</styleUrl>
		</Pair>
		<Pair>
			<key>highlight</key>
			<styleUrl>#sh_ylw-pushpin1</styleUrl>
		</Pair>
	</StyleMap>
	<Style id="sh_ylw-pushpin2">
		<IconStyle>
			<scale>1.3</scale>
			<Icon>
				<href>http://maps.google.com/mapfiles/kml/pushpin/ylw-pushpin.png</href>
			</Icon>
			<hotSpot x="20" y="2" xunits="pixels" yunits="pixels"/>
		</IconStyle>
		<PolyStyle>
			<color>ffffff55</color>
		</PolyStyle>
	</Style>
	<Folder>
		<name>Ферма 2</name>
		<open>1</open>
		<Placemark>
			<name>Склад</name>
			<styleUrl>#msn_ylw-pushpin0</styleUrl>
			<Polygon>
				<tessellate>1</tessellate>
				<outerBoundaryIs>
					<LinearRing>
						<coordinates>
							34.24410382203577,45.32633920013475,0 34.24380941730446,45.32590053607253,0 34.2449494133487,45.32548645058552,0 34.24527540887829,45.32594632566748,0 34.24410382203577,45.32633920013475,0 
						</coordinates>
					</LinearRing>
				</outerBoundaryIs>
			</Polygon>
		</Placemark>
		<Placemark>
			<name>Гараж</name>
			<styleUrl>#msn_ylw-pushpin</styleUrl>
			<Polygon>
				<tessellate>1</tessellate>
				<outerBoundaryIs>
					<LinearRing>
						<coordinates>
							34.24248724278657,45.32731165942972,0 34.24222792813156,45.32697417134596,0 34.24358162870134,45.32650403249217,0 34.24381117030006,45.32684124960348,0 34.24248724278657,45.32731165942972,0 
						</coordinates>
					</LinearRing>
				</outerBoundaryIs>
			</Polygon>
		</Placemark>
		<Placemark>
			<name>Стоянка для техники</name>
			<styleUrl>#msn_ylw-pushpin1</styleUrl>
			<Polygon>
				<tessellate>1</tessellate>
				<outerBoundaryIs>
					<LinearRing>
						<coordinates>
							34.24262983171235,45.3267232893075,0 34.24235802266902,45.32631619291705,0 34.24326665147136,45.32601874626288,0 34.2435537521377,45.32643073040163,0 34.24262983171235,45.3267232893075,0 
						</coordinates>
					</LinearRing>
				</outerBoundaryIs>
			</Polygon>
		</Placemark>
		<Placemark>
			<name>Многоугольник без названия</name>
			<styleUrl>#msn_ylw-pushpin2</styleUrl>
			<Polygon>
				<tessellate>1</tessellate>
				<outerBoundaryIs>
					<LinearRing>
						<coordinates>
						</coordinates>
					</LinearRing>
				</outerBoundaryIs>
			</Polygon>
		</Placemark>
		<Placemark>
			<name>Поле 1</name>
			<styleUrl>#msn_ylw-pushpin2</styleUrl>
			<Polygon>
				<tessellate>1</tessellate>
				<outerBoundaryIs>
					<LinearRing>
						<coordinates>
							34.24026918643829,45.32844676444155,0 34.24063510149978,45.33581117549274,0 34.23631221271069,45.33534774951807,0 34.22700765132964,45.3367883380394,0 34.22738475132365,45.32875003837136,0 34.24026918643829,45.32844676444155,0 
						</coordinates>
					</LinearRing>
				</outerBoundaryIs>
			</Polygon>
		</Placemark>
		<Placemark>
			<name>Поле 2</name>
			<styleUrl>#msn_ylw-pushpin2</styleUrl>
			<Polygon>
				<tessellate>1</tessellate>
				<outerBoundaryIs>
					<LinearRing>
						<coordinates>
							34.22700959410516,45.33982505812507,0 34.22708193218774,45.33709683299421,0 34.23609182262619,45.33581163261711,0 34.2404150636796,45.33627493766463,0 34.24092636907268,45.33977970670353,0 34.22700959410516,45.33982505812507,0 
						</coordinates>
					</LinearRing>
				</outerBoundaryIs>
			</Polygon>
		</Placemark>
		<Placemark>
			<name>Поле 3</name>
			<styleUrl>#msn_ylw-pushpin2</styleUrl>
			<Polygon>
				<tessellate>1</tessellate>
				<outerBoundaryIs>
					<LinearRing>
						<coordinates>
							34.21596943777159,45.328853016388,0 34.2257006586423,45.32885614871104,0 34.22568842719866,45.33833501630898,0 34.21602423566259,45.33827729162438,0 34.21596943777159,45.328853016388,0 
						</coordinates>
					</LinearRing>
				</outerBoundaryIs>
			</Polygon>
		</Placemark>
		<Placemark>
			<name>Поле 4</name>
			<styleUrl>#msn_ylw-pushpin2</styleUrl>
			<Polygon>
				<tessellate>1</tessellate>
				<outerBoundaryIs>
					<LinearRing>
						<coordinates>
							34.21313106049951,45.31474705146327,0 34.22241749825632,45.31891590192706,0 34.22906740444053,45.31227163289528,0 34.24672326412592,45.32035751586007,0 34.24012343415799,45.32761966212922,0 34.21311518402708,45.32807255176026,0 34.21313106049951,45.31474705146327,0 
						</coordinates>
					</LinearRing>
				</outerBoundaryIs>
			</Polygon>
		</Placemark>
		<Placemark>
			<name>Поле 5</name>
			<styleUrl>#msn_ylw-pushpin2</styleUrl>
			<Polygon>
				<tessellate>1</tessellate>
				<outerBoundaryIs>
					<LinearRing>
						<coordinates>
							34.21804773908899,45.31670228984737,0 34.22409409678989,45.30985423201003,0 34.22906761973609,45.31206576707742,0 34.22234550523975,45.31871812502865,0 34.21804773908899,45.31670228984737,0 
						</coordinates>
					</LinearRing>
				</outerBoundaryIs>
			</Polygon>
		</Placemark>
		<Placemark>
			<name>Поле 6</name>
			<styleUrl>#msn_ylw-pushpin2</styleUrl>
			<Polygon>
				<tessellate>1</tessellate>
				<outerBoundaryIs>
					<LinearRing>
						<coordinates>
							34.2191279374607,45.30759488576241,0 34.22402109456257,45.30975136863816,0 34.2178088496991,45.31659029941559,0 34.21311480529039,45.31446262574637,0 34.2191279374607,45.30759488576241,0 
						</coordinates>
					</LinearRing>
				</outerBoundaryIs>
			</Polygon>
		</Placemark>
		<Placemark>
			<name>Поле 7</name>
			<styleUrl>#msn_ylw-pushpin2</styleUrl>
			<Polygon>
				<tessellate>1</tessellate>
				<outerBoundaryIs>
					<LinearRing>
						<coordinates>
							34.24081975720529,45.33154959908305,0 34.24082093773559,45.32820176785513,0 34.24595247875126,45.32624559231324,0 34.24850469579032,45.32711832019714,0 34.24945321845282,45.32711719578754,0 34.25347960440469,45.32706317385561,0 34.25590050330813,45.32835243571518,0 34.24081975720529,45.33154959908305,0 
						</coordinates>
					</LinearRing>
				</outerBoundaryIs>
			</Polygon>
		</Placemark>
		<Placemark>
			<name>Поле 8</name>
			<styleUrl>#msn_ylw-pushpin2</styleUrl>
			<Polygon>
				<tessellate>1</tessellate>
				<outerBoundaryIs>
					<LinearRing>
						<coordinates>
							34.26918273137947,45.33495314185023,0 34.26852109605265,45.33623934624167,0 34.26859365518939,45.34025445039048,0 34.24778040268058,45.33994248552239,0 34.24785244843054,45.33592547026044,0 34.24096863922818,45.33571777579539,0 34.24089327465799,45.33412184634703,0 34.25890937448169,45.33021039029367,0 34.26918273137947,45.33495314185023,0 
						</coordinates>
					</LinearRing>
				</outerBoundaryIs>
			</Polygon>
		</Placemark>
		<Placemark>
			<name>Поле 9</name>
			<styleUrl>#msn_ylw-pushpin2</styleUrl>
			<Polygon>
				<tessellate>1</tessellate>
				<outerBoundaryIs>
					<LinearRing>
						<coordinates>
							34.24206233462423,45.33994417728732,0 34.24147862084787,45.3361815710561,0 34.24748575426197,45.33618313709031,0 34.24726612524069,45.3399426474036,0 34.24206233462423,45.33994417728732,0 
						</coordinates>
					</LinearRing>
				</outerBoundaryIs>
			</Polygon>
		</Placemark>
		<Placemark>
			<name>Поле 10</name>
			<styleUrl>#msn_ylw-pushpin2</styleUrl>
			<Polygon>
				<tessellate>1</tessellate>
				<outerBoundaryIs>
					<LinearRing>
						<coordinates>
							34.20208983645662,45.32341337846523,0 34.20181735963018,45.2996819906713,0 34.21238184807201,45.30482444766332,0 34.21236822715981,45.32811598803506,0 34.20208983645662,45.32341337846523,0 
						</coordinates>
					</LinearRing>
				</outerBoundaryIs>
			</Polygon>
		</Placemark>
		<Placemark>
			<name>Поле 11</name>
			<styleUrl>#msn_ylw-pushpin2</styleUrl>
			<Polygon>
				<tessellate>1</tessellate>
				<outerBoundaryIs>
					<LinearRing>
						<coordinates>
							34.19028186394979,45.29794134778805,0 34.19856158088649,45.29839652069305,0 34.20149813031901,45.2997372054507,0 34.20154460293789,45.3231967229039,0 34.19867950055912,45.32213126143108,0 34.19024807955131,45.32229488562486,0 34.19028186394979,45.29794134778805,0 
						</coordinates>
					</LinearRing>
				</outerBoundaryIs>
			</Polygon>
		</Placemark>
		<Placemark>
			<name>Поле 12</name>
			<styleUrl>#msn_ylw-pushpin2</styleUrl>
			<Polygon>
				<tessellate>1</tessellate>
				<outerBoundaryIs>
					<LinearRing>
						<coordinates>
							34.21304287149719,45.30483769483005,0 34.21892376563358,45.30752057827664,0 34.21311488113977,45.3142387318636,0 34.21304287149719,45.30483769483005,0 
						</coordinates>
					</LinearRing>
				</outerBoundaryIs>
			</Polygon>
		</Placemark>
		<Placemark>
			<name>Поле 13</name>
			<styleUrl>#msn_ylw-pushpin2</styleUrl>
			<Polygon>
				<tessellate>1</tessellate>
				<outerBoundaryIs>
					<LinearRing>
						<coordinates>
						</coordinates>
					</LinearRing>
				</outerBoundaryIs>
			</Polygon>
		</Placemark>
		<Placemark>
			<name>Поле 13</name>
			<styleUrl>#msn_ylw-pushpin2</styleUrl>
			<Polygon>
				<tessellate>1</tessellate>
				<outerBoundaryIs>
					<LinearRing>
						<coordinates>
							34.25111680289438,45.30205934008851,0 34.25108416836854,45.2904337365522,0 34.25608888733009,45.29043467027574,0 34.25594847297052,45.30250583692384,0 34.25111680289438,45.30205934008851,0 
						</coordinates>
					</LinearRing>
				</outerBoundaryIs>
			</Polygon>
		</Placemark>
		<Placemark>
			<name>Поле 14</name>
			<styleUrl>#msn_ylw-pushpin2</styleUrl>
			<Polygon>
				<tessellate>1</tessellate>
				<outerBoundaryIs>
					<LinearRing>
						<coordinates>
							34.25671542596926,45.29052137595654,0 34.26196918721119,45.29060957255189,0 34.2619587325028,45.30474782885875,0 34.25645683041759,45.30250571279731,0 34.25671542596926,45.29052137595654,0 
						</coordinates>
					</LinearRing>
				</outerBoundaryIs>
			</Polygon>
		</Placemark>
		<Placemark>
			<name>Поле 15</name>
			<styleUrl>#msn_ylw-pushpin2</styleUrl>
			<Polygon>
				<tessellate>1</tessellate>
				<outerBoundaryIs>
					<LinearRing>
						<coordinates>
							34.29905079368726,45.31088256000894,0 34.29858203469318,45.29818564851211,0 34.31818720955762,45.29844657997678,0 34.31808259426919,45.31132662852883,0 34.29905079368726,45.31088256000894,0 
						</coordinates>
					</LinearRing>
				</outerBoundaryIs>
			</Polygon>
		</Placemark>
		<Placemark>
			<name>Поле 16</name>
			<styleUrl>#msn_ylw-pushpin2</styleUrl>
			<Polygon>
				<tessellate>1</tessellate>
				<outerBoundaryIs>
					<LinearRing>
						<coordinates>
							34.36933391494308,45.35089110835999,0 34.36904496015897,45.34039156349787,0 34.38422950228527,45.34046555389844,0 34.38420805466166,45.35085826873291,0 34.36933391494308,45.35089110835999,0 
						</coordinates>
					</LinearRing>
				</outerBoundaryIs>
			</Polygon>
		</Placemark>
		<Placemark>
			<name>Поле 17</name>
			<styleUrl>#msn_ylw-pushpin2</styleUrl>
			<Polygon>
				<tessellate>1</tessellate>
				<outerBoundaryIs>
					<LinearRing>
						<coordinates>
							34.36943847354591,45.34002499766606,0 34.37004372447498,45.32945580888867,0 34.38437940606286,45.32961853400688,0 34.38410160909232,45.34009947268484,0 34.36943847354591,45.34002499766606,0 
						</coordinates>
					</LinearRing>
				</outerBoundaryIs>
			</Polygon>
		</Placemark>
		<Placemark>
			<name>Поле 18</name>
			<styleUrl>#msn_ylw-pushpin2</styleUrl>
			<Polygon>
				<tessellate>1</tessellate>
				<outerBoundaryIs>
					<LinearRing>
						<coordinates>
							34.26232199166371,45.30560926280759,0 34.26271475466897,45.2904642656767,0 34.27365314620359,45.29046228751781,0 34.27362117093458,45.30554107685549,0 34.26232199166371,45.30560926280759,0 
						</coordinates>
					</LinearRing>
				</outerBoundaryIs>
			</Polygon>
		</Placemark>
		<Placemark>
			<name>Поле 19</name>
			<styleUrl>#msn_ylw-pushpin2</styleUrl>
			<Polygon>
				<tessellate>1</tessellate>
				<outerBoundaryIs>
					<LinearRing>
						<coordinates>
						</coordinates>
					</LinearRing>
				</outerBoundaryIs>
			</Polygon>
		</Placemark>
	</Folder>
</Document>
</kml>
